{
  "project_info": {
    "project_number": "447772801005",
    "firebase_url": "https://modul4raihanah.firebaseio.com",
    "project_id": "modul4raihanah",
    "storage_bucket": "modul4raihanah.appspot.com"
  },
  "client": [
    {
      "client_info": {
        "mobilesdk_app_id": "1:447772801005:android:3e13d76c79b42e32",
        "android_client_info": {
          "package_name": "com.example"
        }
      },
      "oauth_client": [
        {
          "client_id": "447772801005-ht86esjb94sdq08ceitcj448cv8si8bq.apps.googleusercontent.com",
          "client_type": 3
        }
      ],
      "api_key": [
        {
          "current_key": "AIzaSyDEvhjNr7TXFSNtzdY3mZ4TfsfXJ61niTU"
        }
      ],
      "services": {
        "analytics_service": {
          "status": 1
        },
        "appinvite_service": {
          "status": 1,
          "other_platform_oauth_client": []
        },
        "ads_service": {
          "status": 2
        }
      }
    }
  ],
  "configuration_version": "1"
}